{
  "index": "/index.html",
  "assetGroups": [
    {
      "name": "app",
      "installMode": "prefetch",
      "resources": {
        "files": [
          "/favicon.ico",
          "/index.html",
          "/*.css",
          "/*.js"
        ]
      }
    },
    {
      "name": "assets",
      "installMode": "lazy",
      "updateMode": "prefetch",
      "resources": {
        "files": [
          "/assets/**",
          "/*.(eot|svg|cur|jpg|png|webp|gif|otf|ttf|woff|woff2|ani)"
        ]
      }
    }
  ],
  "dataGroups": [{
    "name": "api-performance",
    "urls": [
      "/api/vi/tribus",
      "/api/vi/family",
      "/api/vi/subfamily",
      "/api/vi/order",
      "/api/vi/underOrder",
      "/api/v1/continent",
      "/api/**"
    ],
    "cacheConfig": {
      "strategy": "freshness",
      "maxSize": 100,
      "maxAge": "1h"
    }
  }
  ]
}